Mo’ Data Mo’ Problems
…
Challenge: Identify Days of the Week

When working with data, it's not always possible to know exactly what every variable represents, or what the data is supposed to be telling us. Sometimes, you'll be forced to work with incomplete data and will have to fill in some of the pieces yourself. That's no different with the data we have here.

Time is currently represented as the number of seconds since "epoch", where epoch here means the time when the data was collected. This is done as a form of anonymization, but it would be helpful if we were able to identify what day of the week activity was occuring. Our challenge then, is to identify a way in which we could estimate that with some certainty.

Challenge: Identify the days of the week

SELECT t.day AS day, COUNT(*) as n
FROM auths a
LEFT JOIN time t ON a.time = t.t_second
GROUP BY t.day

# A tibble: 58 x 2
     day        n
   <int>    <dbl>
 1     1 15740952
 2     2 17562370
 3     3 15585920
 4     4 13473144
 5     5 13398091
 6     6 18557390
 7     7 19381629
 8     8 19394277
 9     9 19374681
10    10 18141675
# ... with 48 more rows
…
Challenge: Which computers are the DCs?

This challenge is merely to demonstrate the power of data visualization in its ability to provide answers, even if you don't know the question that you're asking. What type of visualization do you think would be best for using the auth data to identify which computers are domain controllers?

Challenge: Which computers are the DCs?

SELECT src_comp, dest_comp, COUNT(*) AS n
FROM auth
GROUP BY src_comp, dest_comp

# A tibble: 419,744 x 3
   src_comp dest_comp      n
      <int>     <int>  <dbl>
 1        1         1 110622
 2        1       169    119
 3        1       427   3462
 4        1      1256     90
 5        1      4379    996
 6        1      5450     33
 7        1      6080      1
 8        1      6603     51
 9        1      7578   1646
10        1      8058      4
# ... with 419,734 more rows
…
